:020000040800F2
:100000003810002053230008ED220008EF220008DA
:10001000F1220008F3220008F52200080000000089
:10002000000000000000000000000000F7220008AF
:10003000F922000800000000FB220008FD22000851
:1000400083230008872300088B2300088F230008E0
:1000500093230008972300089B2300089F23000890
:10006000A3230008A7230008AB230008AF23000840
:10007000B3230008B7230008BB230008BF230008F0
:10008000C3230008C7230008CB230008CF230008A0
:10009000D3230008D7230008DB230008DF23000850
:1000A000E3230008E7230008EB230008EF23000800
:1000B000FF220008F7230008FB230008FF230008A5
:1000C00003240008072400080B2400080F2400085C
:1000D00013240008172400081B2400081F2400080C
:1000E00023240008272400082B2400080000000017
:1000F0000000000000000000000000000000000000
:1001000000000000000000002F2400083324000835
:10011000372400083B2400083F240008432400083B
:10012000472400084B2400084F24000853240008EB
:10013000572400085B2400085F240008632400089B
:10014000672400086B2400086F24000801230008BE
:100150002DE9F04FA1B0804617461D46029102AE30
:100160000020706211AC6FF000490AE017F8011B23
:100170000298C0470290002800F07C82706A401C00
:100180007062387808B9706A76E22528EED10020CE
:10019000F06030617061B061F061306201E040F0A8
:1001A000010017F8011F2029F9D023290ED02B298F
:1001B00004D02D2906D030290CD00FE040F00200E9
:1001C00080B2EEE740F0040080B2EAE740F00800B9
:1001D00080B2E6E740F0100080B2E2E72A290DD1B4
:1001E00029680A1D2A600968F162002904D549427C
:1001F000F16240F0040080B27F1C11E00021F16246
:1002000009E0F16A494505D001EB810302EB4301A6
:100210003039F1627F1C3A78A2F130010A29F0D31B
:1002200039782E291CBF4FF0FF31B1621CD117F86D
:10023000011F2A2906D129680A1D2A600968B162AE
:100240007F1C11E00021B16209E0B16A494505D087
:1002500001EB810302EB43013039B1627F1C3A7834
:10026000A2F130010A29F0D3308639780FF6E43054
:1002700000F014FE08B117F8010B8DF83A009DF854
:100280003A00682804D1387868280AD1622005E04D
:100290006C2804BF38786C2803D171208DF83A009F
:1002A0007F1C11A8B0603A781046253825D01C383C
:1002B00075D0001F022872D9133800F09C800938CD
:1002C0006DD0801E00F03781401E00F0DD80401EA2
:1002D000022864D9001F00F0D780401F34D0401E90
:1002E00000F08980401E24D0C01E0CD0801E00F07B
:1002F0008280C01E00F07F8026E1F068411CF16022
:10030000252101552AE12868011D296000687060D7
:10031000B26A002A03D500F0DDFD30611EE1002144
:1003200000F0F4FD00281ABF7168401AB06A30610D
:1003300014E12868011D296000680021CDE9000151
:1003400011A870607821F2E09DF83A00622818D078
:10035000682806D06A280BD06C2819D0712807D0DD
:1003600016E02868011D2960716A00680180F5E0C7
:100370002A68101D2860706AC1171268C2E900015E
:10038000ECE02868011D2960716A00680170E5E0F1
:100390002868011D2960716A00680160DEE0286834
:1003A000C01D20F007002860034603F10800286004
:1003B000D3E90001CDE90001002904D5F068411C12
:1003C000F1602D210DE0308E810704D5F068411CCD
:1003D000F1602B2105E0C00704D5F068411CF160F5
:1003E00020210155F06811A940187060114600A83D
:1003F00000F0D8F9B2E09DF83A306C2B08BF2868BD
:1004000011D0712B08BF286802D06A2B28680AD146
:10041000C01D20F00700286084460CF10800286009
:10042000DCE9000103E0011D296000680021CDE93D
:100430000001682B04BFDDE9000180B20BD0622B04
:1004400004BFDDE90001C0B205D0742B18BF7A2BC0
:1004500004D1DDE900010021CDE9000196F830006A
:1004600000075FD5DDE90001002908BF002859D049
:1004700042F02000782855D1F06830210155401C09
:10048000411CF16002554DE09DF83A0062280CD005
:10049000682810D06A281AD06C2824D0712816D069
:1004A000742820D07A280CD01DE02868011D29600E
:1004B00090F900001BE02868011D2960B0F90000D8
:1004C00015E02868011D29600068002110E02868F7
:1004D000C01D20F007002860034603F108002860D3
:1004E000D3E9000104E02868011D29600068C117F4
:1004F000CDE90001DDE90001002904DAF068411CC2
:10050000F1602D210DE0308E810704D5F068411C8B
:10051000F1602B2105E0C00704D5F068411CF160B3
:1005200020210155F06811A940187060114600A8FB
:1005300000F0A5F812E0F068411CF16029680A1D7E
:100540002A600968015509E0F068411CF160252125
:1005500001551AB1F068411CF16002557F1CF06A28
:10056000F168401AB169401A3169401AF169401ABC
:100570007169401A316AA0EB010A96F83000400711
:1005800011D420208DF84000BAF1010F0BDBD346C7
:10059000012310AA00A9404600F044FC002869D1BC
:1005A000BBF1010BF4D1F36811AA00A9404600F099
:1005B00039FC00285ED130208DF84000D6F818B004
:1005C000BBF1010F0ADB012310AA00A9404600F08D
:1005D00029FC00284ED1BBF1010BF4D133697268BC
:1005E00000A9404600F01EFC002843D130208DF8C1
:1005F0004000D6F81CB0BBF1010F09DB012310AAA3
:1006000000A9404600F00EFCA0BBBBF1010BF5D1E8
:10061000736930697168421800A9404600F002FC15
:1006200040BB30208DF84000D6F820B0BBF1010F60
:1006300009DB012310AA00A9404600F0F3FBC8B96A
:10064000BBF1010BF5D196F8300040077FF599AD6D
:1006500020208DF84000BAF1010FFFF692AD012382
:1006600010AA00A9404600F0DDFB18B9BAF1010A52
:10067000F5D186E54FF0FF3021B0BDE8F08F2DE9D0
:10068000FA4B86B005462F696F2908BF082605D0AA
:1006900041F02000782814BF0A2610263C24D5E912
:1006A000000181468B469DF81820642A18BF692AEC
:1006B00005D1002903DAD9F100096BEB4B0BBBF133
:1006C000000F08BFB9F1000F0CD1286B50B9082EEC
:1006D00044D195F83800000740D53B24302087F8F6
:1006E0003B003BE0A4F101084446F017CDE904606B
:1006F00048465946DDE9042300F034FCCDE9020107
:10070000CDE9009BDDE90223DDE90401A0FB029BAA
:10071000DDE90001A0EB09003030C0B23A2803D374
:100720009DF818105139081808F80700DDE9029BF8
:10073000BBF1000F08BFB9F1000F03D0E868E11961
:100740008842CFD3082E09D195F83800000705D587
:10075000E05D302802D0641E3020E055C4F13C003A
:10076000A861E119E960296B884207DA081A286252
:10077000288F4FF6EF710840288710E000290ED52A
:1007800095F8381001F01401102908D1696B6A69D5
:10079000891A2A6A891A0C1A012CA8BF2C6208B07F
:1007A000BDE8F08B2DE9F24F8EB0054604AFD5E9D8
:1007B0000001CDE902019DF8380040F020008DF8DD
:1007C000000061280BD0286B002848BF062005D404
:1007D00004BF9DF80000672801D1012028636968E3
:1007E000C1F30A5040F2FF7398421CD1080304BFC2
:1007F0002868002809D10320A8619DF838006138D5
:100800001A2837D30FF2606108E00320A8619DF831
:10081000380061381A282AD30FF244610322E868AD
:1008200000F018FCBBE1010017D1284600F04DFC98
:10083000012812DB002400209DF80010612920D13E
:10084000E968302201F8012B4A1CEA609DF8382043
:10085000612A0CBF782258220FE040F2FE316A680C
:1008600061F31E526A60441A4FF0FF30E4E70FF262
:10087000EC51D3E70FF2EC51D0E70A706969891C9B
:10088000696110B90026B0467FE19DF8000061283B
:1008900040F09780286B00284CBF2126461C36B2BA
:1008A000771CD5E900ABDDE902010022002300F04E
:1008B0002FFC3ABF8BF00040CDE902A0CDE902AB9E
:1008C000A4F104088DF810200DF11109012F33DB7C
:1008D000DDE902010022002300F032FC2CD21C21B1
:1008E00002A800F045FCDDE9020100F0CFFC04465F
:1008F000FF1F012F09DB00F0F5FC02460B46DDE986
:10090000020100F007FDCDE9020109F2070007210D
:1009100004E004F00F0200F8012D2411012C01DB8A
:10092000491EF6D5491E5CBF002200F8012DF9D5FD
:1009300000F20709012FCBDA0DF11100A9EB00013C
:100940000DF11107B142B8BF0E4636B2002E31D4B8
:100950003046884206DA04A941184978082928BF98
:100960000F2100D2002104AA821800E0761E401E4A
:1009700012F801398B42F9D00F2904D104A941188A
:100980004A78521C4A70002803D504AF761C08F13F
:10099000040836B2701E0DD4C1190A783032D2B2B2
:1009A0003A2A03D39DF838303A3B9A1801F80129C6
:1009B000401EF2D5286B002840F1E780701E2863A6
:1009C000E3E0DDE902010022002300F0A1FB05D2F3
:1009D000DDE9020181F00041CDE9020124B247F2D4
:1009E000975060436F4990FBF1F80FFA88F8C8F10F
:1009F00007040027DFF8B091012C19DBDDE902AB19
:100A0000E00707D5504659463A464B4600F042FDAE
:100A100082468B466410384649463A464B4600F0BB
:100A200039FD07468946002CEAD1CDE902AB21E029
:100A300064429246DFF874B114D0E00707D55046FF
:100A400059463A464B4600F025FD82468B466410D7
:100A5000384649463A464B4600F01CFD0746894653
:100A6000002CEAD1DDE9020152465B4600F0E4FDCC
:100A7000CDE902019DF8000066280CBF08F10A00CC
:100A80000620296B4618142EA8BF132630208DF897
:100A900010000DF11104464F012E33DBDDE9020198
:100AA00000F00AFC04F1080104220A24B0FBF4F36C
:100AB00003EB830EA0EB4E00303001F8010DB3FBC9
:100AC000F4F000EB8004A3EB4403303301F8013D64
:100AD000521EEAD101F10804083E012EDCDBDDE9FB
:100AE000020100F0E9FB00F007FC02460B46DDE9DD
:100AF000020100F00FFC00223B4600F0CBFCCDE9E8
:100B00000201CBE70DF11100201A0DF111079DF83C
:100B10001110302906D1401EA8F1010817F8011F55
:100B20003029F8D09DF80010662904BF0FFA88F824
:100B300008F1010103D065290CBF012100212A6BB6
:100B40008E1836B2B042B8BF064636B2002E1CD45C
:100B50003146814204DAC85D352828BF392000D2E9
:100B60003020CA19521E00E0761E491E12F80139C3
:100B70008342F9D0392802D1C85D401CC8550029EC
:100B800003D57F1E761C08F101080FFA88F000904B
:100B900033B23A469DF83810284600F00BF80FB0F3
:100BA000BDE8F08FA0860100000024400000F03F67
:100BB00084D797412DE9F04385B00546894617460D
:100BC0001E46BDF93040D5F83080012E02DA0126EC
:100BD0000FF2982749F0200066280AD0672840F0D5
:100BE00086806FF003018C42C0F28780444580F21A
:100BF0008480641C66280CD095F83800000702D465
:100C00004645B8BFB04624B2B8EB040848BF4FF021
:100C10000008E868A96924B2012C25DA4A1C3023AF
:100C20000B54B8F1010F03DA95F83810090702D513
:100C30002E211154521CAA6118EB040FB8BFC8F141
:100C4000000424B261426962A044B045B8BF464680
:100C500036B2EE6132463946AB69181800F0FAF93F
:100C6000A8EB0600A862C6E00818A64218DA3246C9
:100C7000394600F0EFF9A9697118A961A01B6862F3
:100C8000B8F1010F03DA95F83800000705D5E868D8
:100C90002E220A54E869401CE861C5F82880AAE0C1
:100CA0002246394600F0D6F9A8692018A861361BFB
:100CB000B8F1010F03DA95F83810090704D5411C83
:100CC000A961E9682E22425436B2B045B8BF464603
:100CD00036B23246E119A869EB68C01800F0BAF9DB
:100CE000A8693018A861A8EB0600686283E0B9F132
:100CF000610F16D14FF0700918E0464504DA95F8F7
:100D00003810090758BFB046B8F1010848BF4FF086
:100D10000008B9F1670F14BF4FF045094FF065099E
:100D200004E0B9F1410F08BF4FF05009A9694A1C0E
:100D3000E86817F8013B0B54B8F1010F03DA95F896
:100D40003810090702D52E211154521CAA61B8F19E
:100D5000010F11DB761E36B2B045B8BF464636B23B
:100D600032463946AB69181800F074F9A869301892
:100D7000A861A8EB06006862A869E968471807F847
:100D8000019B002C5CBF2B2007F8010B03D52D2005
:100D900007F8010B644200260DF1080824B2012C6B
:100DA0000EDB0A22214600A800F069FD019808F830
:100DB000010B009C761C24B2012CF2DA022E06DA1A
:100DC00049F02000652804BF302007F8010B1EB948
:100DD000302007F8010B09E0012E07DB761E02A880
:100DE000305C303007F8010B012EF7DAA869E968AA
:100DF0004018381AE86195F8380000F014001028FF
:100E00000DD16869A9690818696A0818E96908189C
:100E1000A96A0818696B8842BCBF081A286205B025
:100E2000BDE8F083F8B504460D4616461F4600207F
:100E300077B116F8011BA868A047A86030B1E86A2E
:100E4000401CE86200207F1EF3D1F2BD4FF0FF305E
:100E5000F2BD0000686A6C747A4C00006E616E002E
:100E60004E414E00696E6600494E4600300010B497
:100E700050F8041B81B102681218001D50F8043BA1
:100E8000DC0744BFA9F10104E31852F8044B43F80E
:100E9000044B091FF9D1EBE710BC70470278C9B2C7
:100EA0008A421AB11CBF10F8012FF9E718BF0020C1
:100EB000704750F8041B61B150F8042BD30744BFAE
:100EC000A9F101039A18002342F8043B091FFAD143
:100ED000EFE7704700F10103810704D010F8011B10
:100EE00089B18107FAD10268B2F10131914311F061
:100EF000803F04BF50F8042FF6E710F8011B11B132
:100F000010F8011BFBE7C01A70470000C9B2830745
:100F100006D0521E22D310F8013B9942F7D11FE0B0
:100F2000083A13D302F1040241EA012141EA0141E6
:100F300050F8043B121F21BF4B40A3F1013C2CEAA7
:100F4000030C1CF0803FF3D0C9B2001F083210F828
:100F5000013B521E28BF91EA030FF8D818BF0120A9
:100F6000401E70471B4213D1094236D12AB1844634
:100F7000B0FBF2F002FB10C2704700F087BCFCD35C
:100F80000022002370470B00020000210020704760
:100F9000904271EB030CF6D370B5B1FA81F4B3FA59
:100FA00083F52C1BA340C4F1200532FA05F6334328
:100FB000A2405FF00046E64002E05B085FEA3202D2
:100FC000841A71EB030524BF204629467641F4D3E9
:100FD00002000B003000002170BD012ACFD970B58E
:100FE000140C20D0B1FA81F4B2FA82F5C4F12004D5
:100FF0006419B4F12006D6D3B2405FF00044F44047
:10100000002502E052085FEA3303C61A71EB020EB4
:1010100024BF3046714664416D41F3D302000B009A
:101020002000290070BD0C46B1FBF2F102FB114516
:101030002D0445EA1045B5FBF2F402FB145580B2CD
:1010400040EA0545B5FBF2F002FB105240EA0440CD
:1010500070BD000062B38B0708D0521E11F8013B2F
:1010600000F8013B00F024808B07F6D1830740F0A5
:10107000208000BF103A07D330B4B1E83810103ADE
:10108000A0E83810F9D230BC530724BFB1E80810EB
:10109000A0E8081044BF51F8043B40F8043BD207D5
:1010A00024BF31F8022B20F8022B44BF0B780370C9
:1010B0007047083A07D3B1E80810083A40F8043BF3
:1010C00040F804CBF7D25307E4E730B4416801F0AD
:1010D0000042012143681B031B0B436004BF0368EC
:1010E000002B0ED003684468DD0F45EA44044460D9
:1010F0005B000360491EE302F4D543681B031B0B2E
:10110000436043681A434260084630BC70470000A1
:101110004FF4001C1CEB410F94BF1CEB430F09E084
:1011200041EA030C50EA4C0C52EA0C0C03D29942EF
:1011300008BF9042704714BF8B4282427047000044
:101140004FF4001C1CEB410F94BF1CEB430F09E054
:1011500041EA030C50EA4C0C52EA0C0C03D28B42CD
:1011600008BF8242704714BF994290427047000006
:1011700070B504460D466068C0F30A5040F2FF7235
:10118000904207D16068000304BF2068002818D08F
:10119000022070BD010004D12046FFF796FF012810
:1011A00067DA012D0FDB40F2FF71091A8D420AD375
:1011B0006068002847BF00202F4900202F49C4E95C
:1011C0000001012070BD4142A942616806DA2C4A43
:1011D0001140401941EA0050606053E001F00041C5
:1011E00062681203120B42F480126260401E4519BD
:1011F00005F13500352803D361600020206070BD03
:10120000002215F11F0F05DA203522686068206082
:1012100000206060684213D0521E9241D243C0F158
:10122000200325689D4055EAD2722568C54066684E
:1012300006FA03F32B432360636823FA00F060602F
:10124000606808436060B2F1004F03D80BD120788A
:10125000C00708D52068401C2060206818B9606865
:10126000401C60600EE06068884204BF206800286F
:10127000F8D1002070BD00000000F0FF0000F07FFA
:10128000FFFF0F804FF0FF3070BD0000F446400DAF
:1012900040EAC120490006D200F014F8004248BFDD
:1012A0006FF00040604700F00DF84FF000418842B9
:1012B0008CBF084640426047400D40EAC1204900CB
:1012C00080F00D8040F00040490DA1F58061491C7F
:1012D00005D4D1F11F0154BFC840C01770474FF06B
:1012E00000007047010040F10980F446404200F0E0
:1012F00005F851F000416047010000BF09D0B0FA85
:1013000080F18840C91CC1F58461090501EBD02139
:101310004005704770B44FF0004591EA030F44BF99
:101320006B4000F0B5BA00BF841A71EB030604D21B
:101330006E40001BB141121973414FF4001C1CEBAD
:10134000410F34BF7CEB430684E00C0DA4EB135635
:10135000362E7DDC012E43DC45EAC32343EA52539B
:1013600012BFD20292025B08240545EAC12141EA7C
:101370005051D2EBC020994125D407D1B0FA80F664
:1013800010FA06F164D00020203608E0B1FA81F6A8
:10139000B140C6F1200220FA02F21143B0404FEAF8
:1013A000F474B4EB465434F001064FEA74040AD8DE
:1013B000D6F50016760D04F00044F04061FA06F20E
:1013C0005040F1404840C00A40EA415021F00041FD
:1013D00028BF5FEA500550F1000044EBD12137E00F
:1013E00045EAC323DB0A45EAC121C90AB6F1200553
:1013F0000EDD42EA0242120CC5F1200603FA06F69F
:10140000EB4042EA06056D42984161F100010DE0B2
:1014100062FA06F5F240554063FA06FC82EA0C02D5
:10142000F3405A406D42904161EB030111F4801F7B
:1014300005D1641E620502D06D004041494121F48E
:101440008011430875F1004350F1000041EB045155
:1014500070BC70471CEB410F15D223F0004352EAD9
:1014600043060BD04FEA4C0CBCEB410F04D80C0DDB
:10147000661E342EB7DDEBE7801A994150EA41062B
:1014800008BF0021E4E708BF1CEB430F28BF6FF043
:101490000001DDE7B0B581EA030C0CF0004C40F22E
:1014A000FF7515EA11541DBF15EA1357AC42AF4240
:1014B00039E0E41923EA455343F48013C90241F0AB
:1014C000004141EA505EC7021100A7FB020200285A
:1014D0004FF00000EEFB01204FF00001E3FB07217D
:1014E00018BF42F00102401800214941E3FB0E0100
:1014F000A4F580640F0302D252004041494154F1E7
:1015000001046CDD470872F1004250F1000051EB1C
:101510000451A1F580115CBF41EA0C01B0BD4CEA59
:1015200005510020B0BD05EA1357AC4214BFAF42CD
:1015300041E050EA410E1CBF52EA430E02E0614610
:101540000020B0BD24423C441BD15FEA070EF6D018
:10155000090302BF01460020AEF1140EB1FA81F773
:10156000AEEB070401FA07FE0C37C7F1200100FAC1
:1015700007F7C8404EEA000E23EA455343F48013B0
:10158000A2E733F00043B3FA83F704BFB2FA82FE56
:1015900077440B3FE41BB7F1200E2FBF02FA0EF386
:1015A000BB40C7F1200E22FA0EFE38BF43EA0E03FD
:1015B000BA40641C82E750EA410E14BF52EA430E5F
:1015C0006FF000014FF4001717EB430F8ABF194665
:1015D00017EB410FB5E74CEA05510020B0BDD4F13F
:1015E0000104B4F120070FDAC4F12007520828BF24
:1015F00042F0010210FA07F501FA07F7E1BF2A43AA
:10160000E0403843E1400FE0352C98DCC7F120047E
:1016100052EA400220FA07F218BF42F0010231FA02
:1016200007F0A1400A43002172F1004250F100008E
:1016300051EB0C01B0BD0000F0B540F2FF7581EA3E
:10164000030C0CF0004C15EA11541DBF15EA13579A
:10165000AC42AF42E5E0BC41C1F31301C3F3130355
:10166000801A994143F4801304D2641E400049411A
:1016700080185941C90241EA5051B1FBF3F603FB0E
:101680001611A2FB0675D7EBC020A94102D2761E27
:1016900080185941C90241EA5051B1FBF3FE03FBE6
:1016A0001E11A2FB0E75D7EBC020A94103D2AEF1EB
:1016B000010E80185941890241EA9051760546EAA7
:1016C0008E2EB1FBF3F603FB1611A2FB0675D7EBCA
:1016D0008020A94102D2761E80185941C90241EAF0
:1016E00050514EEA060EB1FBF3F603FB1611A2FBB6
:1016F0000675D7EBC020A94102D2761E8018594149
:10170000C90241EA5051B1FBF3F703FB1711A2FBE9
:101710000735D3EBC020A94167F100070CBF004299
:1017200047F0010766F3D5274FEA1E31B80814F5D4
:10173000806412DDBD0775F1004250EB0E5051EB95
:10174000045111F5801F5CBF41EA0C01F0BD4CF063
:101750007F6141F0E0410020F0BDBD076D0840EA27
:101760000E5041F48011D4F10104B4F120060ADADC
:10177000C4F120060200E04001FA06F3E1401843FC
:10178000B24015430EE0342C13DCC6F1200445EAC8
:1017900040056D0820FA06F2154321FA06F0A14033
:1017A0000D43002175F1004250F1000051EB0C0196
:1017B000F0BD00205FEA0C01F0BDCFB992185B418B
:1017C000B3FA83F704BFB2FA82F6BF190B3FB7F141
:1017D00020062FBF02FA06F3BB40C7F1200622FA0B
:1017E00006F638BF3343BA401CB1E419641E33E730
:1017F0007F4231F00041B1FA81F404BFB0FA80F6C3
:10180000A4190B3CB4F120062FBF00FA06F1A14049
:10181000C4F1200620FA06F638BF3143A0403C1B35
:101820001AE7AC421ABF05EA1357AF4212E050EA7A
:1018300041061CBF52EA4306BFE750EA4107304663
:1018400061461CBF41EA0551F0BD52EA430C08BF96
:10185000C143F0BD00204FF4001616EB410F98BFB6
:1018600016EB430F08BF16EB410F24BFC14305E041
:1018700016EB430F0CBF61464CEA0551F0BD91FBDE
:10188000F2F303FB1211C0E900317047704700000A
:10189000841A71EB030603D2001BB1411219734184
:1018A0004FF4001C1CEB410F34BF7CEB430443E0BE
:1018B0000C0DA4EB1356352E50DC45EAC323DB0A8E
:1018C00045EAC121C912B6F120050DDD63FA05F61E
:1018D000EB4086EA0305124218BF45F00105C01827
:1018E00051F100010CD213E062FA06F5F2405540C6
:1018F000F3415A40B340F3405A408018594107D34E
:1019000049085FEA30005FEA350528BF45F0010568
:1019100001F58011420875F1004250F1000041EBE1
:10192000045170BC4FF4001C1CEB410F38BF7047D2
:101930000020090D090570471CEB410F10D252EA37
:1019400043060BD0BCEB410F05D80C0DAB43661E14
:10195000342EB5DD02E0AB438018594170BC7047AE
:1019600070BC704710B586B0044601A800F00CF9B1
:101970005248016800910299C908B1FBF4F1416035
:101980000121016006B010BD4C4800210160704784
:1019900080B50FF2341000F09BF90FF2401000F008
:1019A00097F9002000F0C8F9012000F0C5F90020E7
:1019B00000F0DFF9012000F0E5F90A20FFF7D2FF7F
:1019C0003E480068C00305D5012000F0E4F900207E
:1019D00000F0E1F900F05EFA1B28F1D10FF21410CB
:1019E00000F076F9002002BD80B500F06DFA3449B0
:1019F0004FF4E130086000204860088188810C20A5
:101A00004881002000F0D2F90FF2181000F060F9C0
:101A1000FFF7BEFF0FF2301000F05AF9FFF7B4FFE6
:101A200000F068F900214FF4E83000F012F900F0FE
:101A300031FA0128FBDB00F0D5FAF8E7F8B50C46DF
:101A400015460026002D0DE01E4F8021384600F07F
:101A500031FB0028F8D014F8011B384600F022FBB7
:101A6000761C6D1EF0D13046F2BD70B50C461546A1
:101A70000026002806D04FF0FF3070BD04F8010B9F
:101A8000761C6D1E002D03D000F004F80028F5D55B
:101A9000304670BD10B50B4804882146890609D52B
:101AA00000F004FB14F00B0102D040F0805010BD98
:101AB000C0B210BD4FF0FF3010BD000010E000E0DC
:101AC0002800002000440040436865636B20626F7B
:101AD000617264204C4544730A0D000050726573B6
:101AE000732045736320666F7220657869740A0DF0
:101AF0000000000020202020202020202020202066
:101B000020202020202020202020202020202020D5
:101B100020202020202020202020202020202020C5
:101B200020200D000C4F4C494D45582053544D3347
:101B30003250313037202D20424C494E4B494E47D0
:101B4000204C45440A0D0000426C696E6B696E675B
:101B5000204C4544732064656D6F2069732066696D
:101B60006E697368656421205072657373206275B5
:101B700074746F6E20746F2073656E642065636883
:101B80006F210D0A0000000070B448490A6802F095
:101B90000C02042A02D0082A03D033E0444A02602F
:101BA00032E00A6802F470120B6803F48033920C7E
:101BB0000D2A01D0921C00E00622002B03D13D4BE0
:101BC0005A43026020E08B6A03F480338C6A04F08D
:101BD0000F04641C364D002B04D1B5FBF4F35A43BB
:101BE000026011E08B6AC3F303135B1C8E6AC6F3B9
:101BF0000326B61CB5FBF3F37343B3FBF4F35A436C
:101C0000026001E02C4A02600A6802F0F0032B4AED
:101C10001B099B5C046824FA03F343600C6804F41A
:101C2000E064240AA45CE34083600B6803F460531F
:101C3000DB0A9B5C446824FA03F3C360096801F47F
:101C4000404102EB9131097CB3FBF1F1016170BCC1
:101C500070471B4A0029116802D008431060704782
:101C600021EA000010607047164A0029116802D06E
:101C700008431060704721EA000010607047124A64
:101C80000029116802D008431060704721EA000063
:101C9000106070470D4A0029116802D00843106097
:101CA000704721EA000010607047000004100240F5
:101CB00040787D0100093D0000127A0000000020FC
:101CC00014100240181002401C1002400C10024078
:101CD0000EB400B582B003A9009100AB0246012109
:101CE000034878440A30FEF733FA06BC5DF810FB6F
:101CF0004D06000080B5554800F0E4F9544800F066
:101D0000E1F9544800F0DEF9534800F0DBF953489C
:101D100000F0D8F9524800F0D5F94FF69F70ADF8B1
:101D2000000004208DF8030003208DF8020000A9B4
:101D30004C4800F026FA01BD10B582B004460121DE
:101D40000FF23C1050F82400FFF78EFF0FF22C101A
:101D500030F81400ADF8000010208DF803000320C7
:101D60008DF8020000A9404850F8240000F009FA5C
:101D700013BD3D4951F820100FF2001232F8100047
:101D800008617047384951F820100FF2F00232F81C
:101D9000100048617047344951F82010CA680FF2AA
:101DA000DC0333F810005040C8607047F8B50646B1
:101DB0000C46354601210FF2D00050F8250040F0C6
:101DC0000100FFF751FF002E04D101214FF4003034
:101DD000FFF755FF0FF2B40030F81500ADF8000022
:101DE00018208DF8030003208DF802001F4E06EB2B
:101DF000850700A9786800F0C4F90FF2940030F864
:101E00001500ADF8000004208DF8030000A97868E3
:101E100000F0B7F956F825001549884204D1012190
:101E2000144800F0FFF906E01349884203D101216C
:101E3000082000F0F7F9214656F8250000F0E6F8F2
:101E4000012156F8250000F021F9F1BD00080140FC
:101E5000000C01400010014000180140001C01402E
:101E60000020014000140140140000201C0000204C
:101E70000048004030001400004400404000800052
:101E800010000000100000002000000020000000F2
:101E90004000000080B50B49086810F1010F03D025
:101EA0004FF0FF320A6002BD012200A90020FFF7B7
:101EB000DCFD012802D19DF8000002BD4FF0FF308B
:101EC00002BD0000240000204148016841F00101EA
:101ED000016041683F4A1140416001683E4A11403B
:101EE0000160016821F480210160416821F4FE0154
:101EF0004160016821F0A05101604FF47F018160D1
:101F00000021C16200BF82B00020019000903048E3
:101F1000016841F480310160016801F400310091F1
:101F20000199491C01910099002903D10199B1F54A
:101F3000A06FF1D10168490C01F0010100910099F5
:101F4000012943D125490A6842F010020A600A6853
:101F5000920892000A600A6842F002020A60416830
:101F6000416041684160416841F480614160C16AFB
:101F70001B4A1140C162C16A41F4833141F04401FE
:101F8000C162016841F08061016001680901FCD50E
:101F9000416821F47C114160416841F4E8114160DD
:101FA000016841F08071016001688901FCD54168D8
:101FB000890889004160416841F00201416041683F
:101FC00001F00C010829FAD102B07047FEE70000C9
:101FD000001002400000FFF0FFFFF6FE002002406C
:101FE00000F0FEFF10B582B0044614F1010F0AD0D4
:101FF0008DF80000012200A90120FFF71FFD012834
:1020000001D1204616BD4FF0FF3016BD30B585B06A
:1020100004460D46208A4CF6FF710840E9880843C3
:102020002082A0894EF6F3110840A9880843298927
:10203000084369890843A081A08A4FF6FF41084000
:10204000A9890843A08200A8FFF79EFD0E4884429C
:1020500001D1039800E002981921484329688900BA
:10206000B0FBF1F06421B0FBF1F21201130901FBA6
:10207000130000013230B0FBF1F000F00F0010430C
:10208000208105B030BD0000003801400029818961
:1020900003D041F40051818170474DF6FF72114029
:1020A00081817047C905C90D818070478088C0054E
:1020B000C00D704700220088084200D0012210465F
:1020C0007047000080B56D49884209D10121042084
:1020D000FFF7E0FD00210420BDE80440FFF7DABD72
:1020E0006749884209D101210820FFF7D3FD00216B
:1020F0000820BDE80440FFF7CDBD6249884209D100
:1021000001211020FFF7C6FD00211020BDE804408A
:10211000FFF7C0BD5C49884209D101212020FFF7AB
:10212000B9FD00212020BDE80440FFF7B3BD5749A9
:10213000884209D101214020FFF7ACFD0021402059
:10214000BDE80440FFF7A6BD5149884209D10121ED
:102150008020FFF79FFD00218020BDE80440FFF7AD
:1021600099BD4C4988420BD101214FF48070FFF793
:1021700091FD00214FF48070BDE80440FFF78ABD57
:1021800001BDF0B40023CC7804F00F02E40601D5C1
:102190008C7822430C88E4B2002C1CD0046803E045
:1021A000482D00D106615B1C082B13D2012505FACE
:1021B00003F635460F882F40AF42F4D19D000F271C
:1021C000AF40BC4302FA05F52C43CD78282DE7D16A
:1021D0004661E8E704600B884FF48074A3421FD384
:1021E0004468002319E0012503F1080605FA06F604
:1021F00035460F882F40AF420ED19D000F27AF40CC
:10220000BC4302FA05F52C43CD78282D00D1466158
:10221000CD78482D00D106615B1C082BE3D34460C8
:10222000F0BC704770B41C4A1468C0F3034583B215
:1022300000F44016B6F5401F06D124F0706415680E
:1022400025F0706515600FE0C60206D5032606FA74
:1022500005F5AC4344F0706406E0450D2D0103FA2A
:1022600005F5AC4344F07064002904D0400D000132
:1022700003FA00F00443146070BC7047000801408A
:10228000000C014000100140001401400018014002
:10229000001C0140002001400400014010B5084925
:1022A00079441C31074C7C441A34A14206D0081DE5
:1022B0000A68511888470146A142F8D110BD00BFF5
:1022C0000800000028000000EBEBFFFF10000000FA
:1022D000280000200000000097EBFFFF280000000E
:1022E0009801000000000020000000007047FEE799
:1022F000FEE7FEE7FEE7704770477047704770479C
:102300007047000000F009F8002801D0FFF7C6FF71
:102310000020FFF769FB00F002F80120704700F091
:1023200001B800000746384600F002F8FBE700005D
:1023300001491820ABBEFBE72600020038B5044671
:102340000D462846FFF74EFEA84218BF002420463F
:1023500032BDC046C046C046C046FFF7D3FFFFF7B8
:10236000C5BFFFF7C4BFFFF7C3BFFFF7C2BFFFF78B
:10237000C1BFFFF7C0BFFFF7BFBFFFF7BEBFFFF78B
:10238000BDBFFFF7FEBFFFF7FEBFFFF7FEBFFFF7C2
:10239000FEBFFFF7FEBFFFF7FEBFFFF7FEBFFFF771
:1023A000FEBFFFF7FEBFFFF7FEBFFFF7FEBFFFF761
:1023B000FEBFFFF7FEBFFFF7FEBFFFF7FEBFFFF751
:1023C000FEBFFFF7FEBFFFF7FEBFFFF7FEBFFFF741
:1023D000FEBFFFF7FEBFFFF7FEBFFFF7FEBFFFF731
:1023E000FEBFFFF7FEBFFFF7FEBFFFF7FEBFFFF721
:1023F000FEBFFFF784BFFFF7FEBFFFF7FEBFFFF78B
:10240000FEBFFFF7FEBFFFF7FEBFFFF7FEBFFFF700
:10241000FEBFFFF7FEBFFFF7FEBFFFF7FEBFFFF7F0
:10242000FEBFFFF7FEBFFFF7FEBFFFF7FEBFFFF7E0
:10243000FEBFFFF7FEBFFFF7FEBFFFF7FEBFFFF7D0
:10244000FEBFFFF7FEBFFFF7FEBFFFF7FEBFFFF7C0
:10245000FEBFFFF7FEBFFFF7FEBFFFF7FEBFFFF7B0
:10246000FEBFFFF7FEBFFFF7FEBFFFF7FEBFFFF7A0
:10247000FEBFFFF745BF000000000000010203049B
:1024800001020304060708090204060800100140BF
:10249000001001400044004000140140FFFFFFFF16
:040000050800235379
:00000001FF
